<?xml version="1.0" encoding="UTF-8" ?>
<!DOCTYPE svg PUBLIC "-//W3C//DTD SVG 1.1//EN" "http://www.w3.org/Graphics/SVG/1.1/DTD/svg11.dtd">
<svg width="45pt" height="30pt" viewBox="0 0 45 30" version="1.1" xmlns="http://www.w3.org/2000/svg">
<g id="#ffffffff">
<path fill="#ffffff" opacity="1.00" d=" M 0.00 0.00 L 45.00 0.00 L 45.00 30.00 L 0.00 30.00 L 0.00 12.41 C 2.24 12.78 4.47 13.16 6.71 13.53 C 7.73 17.05 8.83 20.55 10.32 23.90 C 10.45 24.25 10.70 24.96 10.83 25.31 C 11.71 24.88 12.59 24.45 13.47 24.01 C 13.47 24.95 13.47 26.81 13.48 27.74 C 18.20 27.69 22.93 28.00 27.65 27.62 C 32.41 27.18 36.15 23.28 37.36 18.80 C 38.24 16.73 38.11 14.43 38.17 12.23 C 40.08 10.90 42.04 9.66 43.97 8.38 C 41.67 8.42 39.37 8.47 37.07 8.48 C 35.65 4.56 32.21 1.33 27.99 0.81 C 23.17 0.29 18.31 0.69 13.48 0.60 C 13.48 3.86 13.49 7.13 13.51 10.40 C 9.01 10.66 4.50 10.70 0.00 10.97 L 0.00 0.00 Z" />
<path fill="#ffffff" opacity="1.00" d=" M 19.55 5.64 C 23.53 5.56 28.43 5.13 30.90 8.99 C 27.15 9.54 23.36 9.59 19.59 9.78 C 19.57 8.40 19.56 7.02 19.55 5.64 Z" />
<path fill="#ffffff" opacity="1.00" d=" M 19.66 20.85 C 23.70 18.68 27.84 16.70 31.89 14.55 C 31.59 16.93 31.36 19.67 29.28 21.25 C 26.50 23.43 22.70 22.45 19.45 22.65 C 19.51 22.20 19.61 21.30 19.66 20.85 Z" />
</g>
<g id="#ed2024ff">
<path fill="#ed2024" opacity="1.00" d=" M 13.48 0.60 C 18.31 0.69 23.17 0.29 27.99 0.81 C 32.21 1.33 35.65 4.56 37.07 8.48 C 37.28 9.54 37.43 10.61 37.53 11.69 C 35.67 12.63 33.81 13.54 31.97 14.50 C 31.97 14.22 31.95 13.67 31.94 13.39 C 31.65 11.91 31.31 10.44 30.90 8.99 C 28.43 5.13 23.53 5.56 19.55 5.64 C 19.56 7.02 19.57 8.40 19.59 9.78 C 17.56 9.95 15.54 10.23 13.51 10.40 C 13.49 7.13 13.48 3.86 13.48 0.60 Z" />
</g>
<g id="#bababaff">
<path fill="#bababa" opacity="1.00" d=" M 37.07 8.48 C 39.37 8.47 41.67 8.42 43.97 8.38 C 42.04 9.66 40.08 10.90 38.17 12.23 C 38.11 14.43 38.24 16.73 37.36 18.80 C 37.11 16.43 37.41 14.06 37.53 11.69 C 37.43 10.61 37.28 9.54 37.07 8.48 Z" />
<path fill="#bababa" opacity="1.00" d=" M 30.90 8.99 C 31.31 10.44 31.65 11.91 31.94 13.39 C 28.29 14.72 24.71 17.58 20.63 16.60 C 17.49 16.01 14.28 15.52 11.42 14.01 C 16.81 12.95 22.25 12.16 27.73 11.66 C 21.89 11.26 16.07 12.16 10.32 13.06 C 9.64 13.20 8.27 13.50 7.59 13.64 C 8.49 16.66 9.45 19.66 10.23 22.71 L 10.32 23.90 C 8.83 20.55 7.73 17.05 6.71 13.53 C 4.47 13.16 2.24 12.78 0.00 12.41 L 0.00 10.97 C 4.50 10.70 9.01 10.66 13.51 10.40 C 15.54 10.23 17.56 9.95 19.59 9.78 C 23.36 9.59 27.15 9.54 30.90 8.99 Z" />
</g>
<g id="#5d5d5dff">
<path fill="#5d5d5d" opacity="1.00" d=" M 10.32 13.06 C 16.07 12.16 21.89 11.26 27.73 11.66 C 22.25 12.16 16.81 12.95 11.42 14.01 C 14.28 15.52 17.49 16.01 20.63 16.60 C 24.71 17.58 28.29 14.72 31.94 13.39 C 31.95 13.67 31.97 14.22 31.97 14.50 L 31.89 14.55 C 27.84 16.70 23.70 18.68 19.66 20.85 C 17.61 21.93 15.54 22.97 13.47 24.01 C 12.59 24.45 11.71 24.88 10.83 25.31 C 10.70 24.96 10.45 24.25 10.32 23.90 L 10.23 22.71 C 10.68 19.51 10.64 16.27 10.32 13.06 Z" />
</g>
<g id="#811a1aff">
<path fill="#811a1a" opacity="1.00" d=" M 31.97 14.50 C 33.81 13.54 35.67 12.63 37.53 11.69 C 37.41 14.06 37.11 16.43 37.36 18.80 C 36.15 23.28 32.41 27.18 27.65 27.62 C 22.93 28.00 18.20 27.69 13.48 27.74 C 13.47 26.81 13.47 24.95 13.47 24.01 C 15.54 22.97 17.61 21.93 19.66 20.85 C 19.61 21.30 19.51 22.20 19.45 22.65 C 22.70 22.45 26.50 23.43 29.28 21.25 C 31.36 19.67 31.59 16.93 31.89 14.55 L 31.97 14.50 Z" />
</g>
<g id="#3a3a3aff">
<path fill="#3a3a3a" opacity="1.00" d=" M 7.59 13.64 C 8.27 13.50 9.64 13.20 10.32 13.06 C 10.64 16.27 10.68 19.51 10.23 22.71 C 9.45 19.66 8.49 16.66 7.59 13.64 Z" />
</g>
</svg>
